Machine Learning Classifier for Banding University Students in Kenya – Cornelius Tanui
…
  dplyr::mutate(Odds = round(Odds, 4),
                Lower95 = round(Lower95, 4),
                Upper95 = round(Upper95, 4))

model_results

# A tibble: 216 × 8
   Bands Predictors             Odds StandardError Statistic `P-value`   Lower95
   <chr> <chr>                 <dbl>         <dbl>     <dbl>     <dbl>     <dbl>
 1 2     (Intercept)       Inf            1.02e- 7   8.92e10         0 Inf      
 2 2     GrossFamilyIncome   8.08e-1      5.51e- 4  -3.88e 2         0   8.07e-1
 3 2     GeographicalLoca…   5.48e+0      1.47e- 8   1.16e 8         0   5.48e+0
 4 2     GeographicalLoca…   5.75e+3      1.13e- 9   7.66e 9         0   5.75e+3
 5 2     GeographicalLoca…   4   e-4      3.44e- 8  -2.27e 8         0   4   e-4
 6 2     GeographicalLoca…   2.73e+2      1.36e- 9   4.14e 9         0   2.73e+2
 7 2     GeographicalLoca…   1.37e+2      5.31e- 9   9.26e 8         0   1.37e+2
 8 2     GeographicalLoca…   8.7 e-3      2.86e- 8  -1.66e 8         0   8.7 e-3
 9 2     GeographicalLoca…   0            3.19e- 8  -4.16e 8         0   0      
10 2     GeographicalLoca…   1.66e+6      1.40e-16   1.02e17         0   1.66e+6
# ℹ 206 more rows
# ℹ 1 more variable: Upper95 <dbl>
…
